{
  "project_info": {
    "project_number": "903842818214",
    "firebase_url": "https://pushnotification-fea7e.firebaseio.com",
    "project_id": "pushnotification-fea7e",
    "storage_bucket": "pushnotification-fea7e.appspot.com"
  },
  "client": [
    {
      "client_info": {
        "mobilesdk_app_id": "1:903842818214:android:4d390c31c6193866",
        "android_client_info": {
          "package_name": "io.push.demo"
        }
      },
      "oauth_client": [
        {
          "client_id": "903842818214-dc8ulegjaisss4q3mshamgca9d30rav8.apps.googleusercontent.com",
          "client_type": 3
        }
      ],
      "api_key": [
        {
          "current_key": "AIzaSyDfJfekm-3iTHFug1tVKn-jSHTIP0zOsoQ"
        }
      ],
      "services": {
        "analytics_service": {
          "status": 1
        },
        "appinvite_service": {
          "status": 1,
          "other_platform_oauth_client": []
        },
        "ads_service": {
          "status": 2
        }
      }
    }
  ],
  "configuration_version": "1"
}